<?xml version="1.0" encoding="UTF-8"?>
<!DOCTYPE svg PUBLIC "-//W3C//DTD SVG 1.1//EN" "http://www.w3.org/Graphics/SVG/1.1/DTD/svg11.dtd">
<!-- Creator: CorelDRAW X6 -->
<svg xmlns="http://www.w3.org/2000/svg" xml:space="preserve" width="18" height="18" version="1.1" style="shape-rendering:geometricPrecision; text-rendering:geometricPrecision; image-rendering:optimizeQuality; fill-rule:evenodd; clip-rule:evenodd"
viewBox="0 0 1000 1000"
 xmlns:xlink="http://www.w3.org/1999/xlink">
 <defs>
  <style type="text/css">
   <![CDATA[
    .fil0 {fill:#fff;fill-rule:nonzero}
   ]]>
  </style>
 </defs>
 <g id="Layer_x0020_1">
  <metadata id="CorelCorpID_0Corel-Layer"/>
  <path class="fil0" d="M1000 167c0,-88 -79,-167 -167,-167l-667 0c-88,0 -167,79 -167,167l0 667c0,88 79,167 167,167l333 0 0 -378 -122 0 0 -167 122 0 0 -65c0,-112 84,-213 188,-213l135 0 0 167 -135 0c-15,0 -32,18 -32,45l0 66 167 0 0 167 -167 0 0 378 178 0c88,0 167,-79 167,-167l0 -667z"/>
 </g>
</svg>
